{
  "name": "node-gitlog",
  "$schema": "../../node_modules/nx/schemas/project-schema.json",
  "sourceRoot": "packages/node-gitlog/src",
  "projectType": "library",
  "targets": {
    "lint": {
      "executor": "@nrwl/linter:eslint",
      "outputs": ["{options.outputFile}"],
      "options": {
        "lintFilePatterns": ["packages/node-gitlog/**/*.ts"]
      }
    },
    "test": {
      "executor": "@nrwl/jest:jest",
      "outputs": ["{workspaceRoot}/coverage/{projectRoot}"],
      "options": {
        "jestConfig": "packages/node-gitlog/jest.config.ts",
        "passWithNoTests": true
      }
    }
  },
  "tags": []
}
